%YAML 1.1
%TAG !u! tag:unity3d.com,2011:
--- !u!114 &11400000
MonoBehaviour:
  m_ObjectHideFlags: 0
  m_CorrespondingSourceObject: {fileID: 0}
  m_PrefabInternal: {fileID: 0}
  m_GameObject: {fileID: 0}
  m_Enabled: 1
  m_EditorHideFlags: 0
  m_Script: {fileID: 11500000, guid: b58e4a95703a82545beaff0d516b68dc, type: 3}
  m_Name: CommonSounds
  m_EditorClassIdentifier: 
  Sounds:
  - soundKey: Kill
    soundUsed: {fileID: 1549516721514678, guid: 0fcfed5905d1a154888a8c6a34b5524a,
      type: 2}
    priority: 100
    volume: 0.75
    pitch: 1
    pitchVariation: 0.05
    autoFadeRate: 0
    autoFades: 0
  - soundKey: Charge
    soundUsed: {fileID: 1549516721514678, guid: 6ff02744e4a664943b9d8db88ee9fb3c,
      type: 2}
    priority: 100
    volume: 0.4
    pitch: 1
    pitchVariation: 0.06
    autoFadeRate: 0
    autoFades: 0
  - soundKey: Wall Slam
    soundUsed: {fileID: 1549516721514678, guid: d29f344ee1a673c44b7d9d4489f9b329,
      type: 2}
    priority: 100
    volume: 0.4
    pitch: 0.8
    pitchVariation: 0.08
    autoFadeRate: 0
    autoFades: 0
  - soundKey: Revive
    soundUsed: {fileID: 1549516721514678, guid: 20613c61815e7af4cbf0f49e21458f22,
      type: 2}
    priority: 100
    volume: 0.5
    pitch: 1
    pitchVariation: 0.08
    autoFadeRate: 0
    autoFades: 0
