<?xml version="1.0" encoding="UTF-8" standalone="no"?>
<!-- Created with Inkscape (http://www.inkscape.org/) -->

<svg
   xmlns:osb="http://www.openswatchbook.org/uri/2009/osb"
   xmlns:dc="http://purl.org/dc/elements/1.1/"
   xmlns:cc="http://creativecommons.org/ns#"
   xmlns:rdf="http://www.w3.org/1999/02/22-rdf-syntax-ns#"
   xmlns:svg="http://www.w3.org/2000/svg"
   xmlns="http://www.w3.org/2000/svg"
   xmlns:xlink="http://www.w3.org/1999/xlink"
   xmlns:sodipodi="http://sodipodi.sourceforge.net/DTD/sodipodi-0.dtd"
   xmlns:inkscape="http://www.inkscape.org/namespaces/inkscape"
   id="svg2"
   version="1.1"
   inkscape:version="0.48.4 r9939"
   width="128"
   height="128"
   sodipodi:docname="Windowsill.png">
  <metadata
     id="metadata8">
    <rdf:RDF>
      <cc:Work
         rdf:about="">
        <dc:format>image/svg+xml</dc:format>
        <dc:type
           rdf:resource="http://purl.org/dc/dcmitype/StillImage" />
        <dc:title></dc:title>
      </cc:Work>
    </rdf:RDF>
  </metadata>
  <defs
     id="defs6">
    <pattern
       inkscape:collect="always"
       xlink:href="#Strips1_10white"
       id="pattern5471"
       patternTransform="matrix(10,0,0,10,60.745763,-38.508475)" />
    <pattern
       inkscape:stockid="Stripes 1:10 white"
       id="Strips1_10white"
       patternTransform="translate(0,0) scale(10,10)"
       height="1"
       width="11"
       patternUnits="userSpaceOnUse"
       inkscape:collect="always">
      <rect
         id="rect4551"
         height="2"
         width="1"
         y="-0.5"
         x="0"
         style="fill:white;stroke:none" />
    </pattern>
    <linearGradient
       id="linearGradient5322"
       osb:paint="solid">
      <stop
         style="stop-color:#ffffff;stop-opacity:1;"
         offset="0"
         id="stop5324" />
    </linearGradient>
    <linearGradient
       id="linearGradient5265"
       osb:paint="solid">
      <stop
         style="stop-color:#ffffff;stop-opacity:1;"
         offset="0"
         id="stop5267" />
    </linearGradient>
    <linearGradient
       id="linearGradient3759">
      <stop
         style="stop-color:#ffffff;stop-opacity:1;"
         offset="0"
         id="stop3761" />
      <stop
         style="stop-color:#ffffff;stop-opacity:0;"
         offset="1"
         id="stop3763" />
    </linearGradient>
    <filter
       inkscape:collect="always"
       id="filter5477">
      <feGaussianBlur
         inkscape:collect="always"
         stdDeviation="2.1846779"
         id="feGaussianBlur5479" />
    </filter>
    <filter
       inkscape:collect="always"
       id="filter5497">
      <feGaussianBlur
         inkscape:collect="always"
         stdDeviation="2.0926171"
         id="feGaussianBlur5499" />
    </filter>
  </defs>
  <sodipodi:namedview
     pagecolor="#ffffff"
     bordercolor="#666666"
     borderopacity="1"
     objecttolerance="10"
     gridtolerance="10"
     guidetolerance="10"
     inkscape:pageopacity="0"
     inkscape:pageshadow="2"
     inkscape:window-width="1920"
     inkscape:window-height="1017"
     id="namedview4"
     showgrid="false"
     inkscape:zoom="3.6875"
     inkscape:cx="-3.4467559"
     inkscape:cy="61.738174"
     inkscape:window-x="-8"
     inkscape:window-y="-8"
     inkscape:window-maximized="1"
     inkscape:current-layer="svg2" />
  <rect
     style="color:#000000;fill:#000000;fill-opacity:1;fill-rule:nonzero;stroke:none;stroke-width:11.68599987;marker:none;visibility:visible;display:inline;overflow:visible;enable-background:accumulate"
     id="rect5459"
     width="132.88135"
     height="131.25423"
     x="0.54237658"
     y="-1.8983058" />
  <rect
     style="color:#000000;fill:url(#Strips1_10white);fill-opacity:1;fill-rule:nonzero;stroke:none;stroke-width:11.68599987000000000;marker:none;visibility:visible;display:inline;overflow:visible;enable-background:accumulate;filter:url(#filter5497)"
     id="rect2987-0"
     width="129.35594"
     height="129.08476"
     x="-2.0339031"
     y="-1.0847535"
     ry="0"
     transform="matrix(0.01221053,0.99992545,-0.99992545,0.01221053,130.21341,56.450159)" />
  <g
     inkscape:groupmode="layer"
     id="layer1"
     inkscape:label="Layer"
     style="display:inline" />
  <g
     inkscape:groupmode="layer"
     id="layer2"
     inkscape:label="Layer#1"
     style="display:inline" />
  <rect
     style="color:#000000;fill:url(#pattern5471);fill-opacity:1;fill-rule:nonzero;stroke:none;stroke-width:11.68599987000000000;marker:none;visibility:visible;display:inline;overflow:visible;enable-background:accumulate;filter:url(#filter5477)"
     id="rect2987"
     width="138.30507"
     height="134.77966"
     x="50.169491"
     y="-4.6101699"
     ry="0" />
</svg>
